[api-updater (non-obsolete-error-filter)] 28-01-2022 13:00:52 : Starting C:/Program Files/Unity 2021.1.16f1/2020.3.18f1/Editor/Data/Tools/ScriptUpdater/APIUpdater.NonObsoleteApiUpdaterDetector.exe
[api-updater (non-obsolete-error-filter)] 
----------------------------------
jit/startup time      : 612.5381ms
moved types parse time: 48ms
candidates parse time : 1ms
C# parse time         : 208ms
candidates check time : 34ms
console write time    : 1ms

[api-updater (non-obsolete-error-filter)] 28-01-2022 13:01:09 : Starting C:/Program Files/Unity 2021.1.16f1/2020.3.18f1/Editor/Data/Tools/ScriptUpdater/APIUpdater.NonObsoleteApiUpdaterDetector.exe
[api-updater (non-obsolete-error-filter)] 
----------------------------------
jit/startup time      : 64.826ms
moved types parse time: 53ms
candidates parse time : 1ms
C# parse time         : 159ms
candidates check time : 26ms
console write time    : 0ms

[api-updater (non-obsolete-error-filter)] 28-01-2022 13:02:35 : Starting C:/Program Files/Unity 2021.1.16f1/2020.3.18f1/Editor/Data/Tools/ScriptUpdater/APIUpdater.NonObsoleteApiUpdaterDetector.exe
[api-updater (non-obsolete-error-filter)] 
----------------------------------
jit/startup time      : 60.4062ms
moved types parse time: 48ms
candidates parse time : 1ms
C# parse time         : 163ms
candidates check time : 28ms
console write time    : 0ms

[api-updater (non-obsolete-error-filter)] 28-01-2022 13:02:46 : Starting C:/Program Files/Unity 2021.1.16f1/2020.3.18f1/Editor/Data/Tools/ScriptUpdater/APIUpdater.NonObsoleteApiUpdaterDetector.exe
[api-updater (non-obsolete-error-filter)] 
----------------------------------
jit/startup time      : 58.8446ms
moved types parse time: 49ms
candidates parse time : 0ms
C# parse time         : 197ms
candidates check time : 32ms
console write time    : 0ms

[api-updater (non-obsolete-error-filter)] 28-01-2022 13:02:53 : Starting C:/Program Files/Unity 2021.1.16f1/2020.3.18f1/Editor/Data/Tools/ScriptUpdater/APIUpdater.NonObsoleteApiUpdaterDetector.exe
[api-updater (non-obsolete-error-filter)] 
----------------------------------
jit/startup time      : 59.1127ms
moved types parse time: 46ms
candidates parse time : 1ms
C# parse time         : 173ms
candidates check time : 49ms
console write time    : 0ms

[api-updater (non-obsolete-error-filter)] 28-01-2022 13:03:04 : Starting C:/Program Files/Unity 2021.1.16f1/2020.3.18f1/Editor/Data/Tools/ScriptUpdater/APIUpdater.NonObsoleteApiUpdaterDetector.exe
[api-updater (non-obsolete-error-filter)] 
----------------------------------
jit/startup time      : 59.652ms
moved types parse time: 46ms
candidates parse time : 1ms
C# parse time         : 174ms
candidates check time : 54ms
console write time    : 0ms

[api-updater (non-obsolete-error-filter)] 28-01-2022 13:03:13 : Starting C:/Program Files/Unity 2021.1.16f1/2020.3.18f1/Editor/Data/Tools/ScriptUpdater/APIUpdater.NonObsoleteApiUpdaterDetector.exe
[api-updater (non-obsolete-error-filter)] 
----------------------------------
jit/startup time      : 60.6343ms
moved types parse time: 50ms
candidates parse time : 1ms
C# parse time         : 186ms
candidates check time : 60ms
console write time    : 0ms

[api-updater (non-obsolete-error-filter)] 28-01-2022 13:03:19 : Starting C:/Program Files/Unity 2021.1.16f1/2020.3.18f1/Editor/Data/Tools/ScriptUpdater/APIUpdater.NonObsoleteApiUpdaterDetector.exe
[api-updater (non-obsolete-error-filter)] 
----------------------------------
jit/startup time      : 60.8771ms
moved types parse time: 47ms
candidates parse time : 1ms
C# parse time         : 163ms
candidates check time : 48ms
console write time    : 0ms

[api-updater (non-obsolete-error-filter)] 28-01-2022 13:03:52 : Starting C:/Program Files/Unity 2021.1.16f1/2020.3.18f1/Editor/Data/Tools/ScriptUpdater/APIUpdater.NonObsoleteApiUpdaterDetector.exe
[api-updater (non-obsolete-error-filter)] 
----------------------------------
jit/startup time      : 66.8209ms
moved types parse time: 56ms
candidates parse time : 1ms
C# parse time         : 164ms
candidates check time : 28ms
console write time    : 0ms

[api-updater (non-obsolete-error-filter)] 28-01-2022 13:04:03 : Starting C:/Program Files/Unity 2021.1.16f1/2020.3.18f1/Editor/Data/Tools/ScriptUpdater/APIUpdater.NonObsoleteApiUpdaterDetector.exe
[api-updater (non-obsolete-error-filter)] 
----------------------------------
jit/startup time      : 61.1593ms
moved types parse time: 47ms
candidates parse time : 1ms
C# parse time         : 165ms
candidates check time : 48ms
console write time    : 0ms

[api-updater (non-obsolete-error-filter)] 28-01-2022 13:04:13 : Starting C:/Program Files/Unity 2021.1.16f1/2020.3.18f1/Editor/Data/Tools/ScriptUpdater/APIUpdater.NonObsoleteApiUpdaterDetector.exe
[api-updater (non-obsolete-error-filter)] 
----------------------------------
jit/startup time      : 59.8408ms
moved types parse time: 48ms
candidates parse time : 1ms
C# parse time         : 185ms
candidates check time : 52ms
console write time    : 0ms

[api-updater (non-obsolete-error-filter)] 28-01-2022 13:04:21 : Starting C:/Program Files/Unity 2021.1.16f1/2020.3.18f1/Editor/Data/Tools/ScriptUpdater/APIUpdater.NonObsoleteApiUpdaterDetector.exe
[api-updater (non-obsolete-error-filter)] 
----------------------------------
jit/startup time      : 65.5041ms
moved types parse time: 54ms
candidates parse time : 1ms
C# parse time         : 165ms
candidates check time : 44ms
console write time    : 0ms

[api-updater (non-obsolete-error-filter)] 28-01-2022 13:04:30 : Starting C:/Program Files/Unity 2021.1.16f1/2020.3.18f1/Editor/Data/Tools/ScriptUpdater/APIUpdater.NonObsoleteApiUpdaterDetector.exe
[api-updater (non-obsolete-error-filter)] 
----------------------------------
jit/startup time      : 62.8678ms
moved types parse time: 46ms
candidates parse time : 1ms
C# parse time         : 159ms
candidates check time : 46ms
console write time    : 0ms

[api-updater (non-obsolete-error-filter)] 28-01-2022 13:04:39 : Starting C:/Program Files/Unity 2021.1.16f1/2020.3.18f1/Editor/Data/Tools/ScriptUpdater/APIUpdater.NonObsoleteApiUpdaterDetector.exe
[api-updater (non-obsolete-error-filter)] 
----------------------------------
jit/startup time      : 59.5922ms
moved types parse time: 48ms
candidates parse time : 1ms
C# parse time         : 171ms
candidates check time : 46ms
console write time    : 0ms

[api-updater (non-obsolete-error-filter)] 28-01-2022 13:04:51 : Starting C:/Program Files/Unity 2021.1.16f1/2020.3.18f1/Editor/Data/Tools/ScriptUpdater/APIUpdater.NonObsoleteApiUpdaterDetector.exe
[api-updater (non-obsolete-error-filter)] 
----------------------------------
jit/startup time      : 65.8582ms
moved types parse time: 50ms
candidates parse time : 1ms
C# parse time         : 169ms
candidates check time : 42ms
console write time    : 0ms

[api-updater (non-obsolete-error-filter)] 28-01-2022 13:05:16 : Starting C:/Program Files/Unity 2021.1.16f1/2020.3.18f1/Editor/Data/Tools/ScriptUpdater/APIUpdater.NonObsoleteApiUpdaterDetector.exe
[api-updater (non-obsolete-error-filter)] 
----------------------------------
jit/startup time      : 61.0602ms
moved types parse time: 47ms
candidates parse time : 1ms
C# parse time         : 166ms
candidates check time : 42ms
console write time    : 0ms

[api-updater (non-obsolete-error-filter)] 28-01-2022 13:05:29 : Starting C:/Program Files/Unity 2021.1.16f1/2020.3.18f1/Editor/Data/Tools/ScriptUpdater/APIUpdater.NonObsoleteApiUpdaterDetector.exe
[api-updater (non-obsolete-error-filter)] 
----------------------------------
jit/startup time      : 62.7516ms
moved types parse time: 47ms
candidates parse time : 1ms
C# parse time         : 164ms
candidates check time : 45ms
console write time    : 0ms

[api-updater (non-obsolete-error-filter)] 28-01-2022 13:05:47 : Starting C:/Program Files/Unity 2021.1.16f1/2020.3.18f1/Editor/Data/Tools/ScriptUpdater/APIUpdater.NonObsoleteApiUpdaterDetector.exe
[api-updater (non-obsolete-error-filter)] 
----------------------------------
jit/startup time      : 62.5045ms
moved types parse time: 48ms
candidates parse time : 1ms
C# parse time         : 160ms
candidates check time : 41ms
console write time    : 0ms

[api-updater (non-obsolete-error-filter)] 28-01-2022 13:06:11 : Starting C:/Program Files/Unity 2021.1.16f1/2020.3.18f1/Editor/Data/Tools/ScriptUpdater/APIUpdater.NonObsoleteApiUpdaterDetector.exe
[api-updater (non-obsolete-error-filter)] 
----------------------------------
jit/startup time      : 60.8325ms
moved types parse time: 53ms
candidates parse time : 1ms
C# parse time         : 158ms
candidates check time : 40ms
console write time    : 0ms

[api-updater (non-obsolete-error-filter)] 28-01-2022 13:06:27 : Starting C:/Program Files/Unity 2021.1.16f1/2020.3.18f1/Editor/Data/Tools/ScriptUpdater/APIUpdater.NonObsoleteApiUpdaterDetector.exe
[api-updater (non-obsolete-error-filter)] 
----------------------------------
jit/startup time      : 62.3577ms
moved types parse time: 47ms
candidates parse time : 0ms
C# parse time         : 158ms
candidates check time : 32ms
console write time    : 0ms

[api-updater (non-obsolete-error-filter)] 28-01-2022 13:06:47 : Starting C:/Program Files/Unity 2021.1.16f1/2020.3.18f1/Editor/Data/Tools/ScriptUpdater/APIUpdater.NonObsoleteApiUpdaterDetector.exe
[api-updater (non-obsolete-error-filter)] 
----------------------------------
jit/startup time      : 61.1824ms
moved types parse time: 46ms
candidates parse time : 1ms
C# parse time         : 156ms
candidates check time : 30ms
console write time    : 0ms

[api-updater (non-obsolete-error-filter)] 28-01-2022 13:07:01 : Starting C:/Program Files/Unity 2021.1.16f1/2020.3.18f1/Editor/Data/Tools/ScriptUpdater/APIUpdater.NonObsoleteApiUpdaterDetector.exe
[api-updater (non-obsolete-error-filter)] 
----------------------------------
jit/startup time      : 58.823ms
moved types parse time: 47ms
candidates parse time : 0ms
C# parse time         : 159ms
candidates check time : 29ms
console write time    : 0ms

[api-updater (non-obsolete-error-filter)] 28-01-2022 13:07:29 : Starting C:/Program Files/Unity 2021.1.16f1/2020.3.18f1/Editor/Data/Tools/ScriptUpdater/APIUpdater.NonObsoleteApiUpdaterDetector.exe
[api-updater (non-obsolete-error-filter)] 
----------------------------------
jit/startup time      : 68.8513ms
moved types parse time: 49ms
candidates parse time : 1ms
C# parse time         : 186ms
candidates check time : 54ms
console write time    : 0ms

[api-updater (non-obsolete-error-filter)] 28-01-2022 13:07:40 : Starting C:/Program Files/Unity 2021.1.16f1/2020.3.18f1/Editor/Data/Tools/ScriptUpdater/APIUpdater.NonObsoleteApiUpdaterDetector.exe
[api-updater (non-obsolete-error-filter)] 
----------------------------------
jit/startup time      : 60.9047ms
moved types parse time: 48ms
candidates parse time : 1ms
C# parse time         : 168ms
candidates check time : 47ms
console write time    : 0ms

[api-updater (non-obsolete-error-filter)] 28-01-2022 13:07:48 : Starting C:/Program Files/Unity 2021.1.16f1/2020.3.18f1/Editor/Data/Tools/ScriptUpdater/APIUpdater.NonObsoleteApiUpdaterDetector.exe
[api-updater (non-obsolete-error-filter)] 
----------------------------------
jit/startup time      : 60.8694ms
moved types parse time: 47ms
candidates parse time : 1ms
C# parse time         : 165ms
candidates check time : 47ms
console write time    : 0ms

[api-updater (non-obsolete-error-filter)] 28-01-2022 13:07:57 : Starting C:/Program Files/Unity 2021.1.16f1/2020.3.18f1/Editor/Data/Tools/ScriptUpdater/APIUpdater.NonObsoleteApiUpdaterDetector.exe
[api-updater (non-obsolete-error-filter)] 
----------------------------------
jit/startup time      : 60.8367ms
moved types parse time: 49ms
candidates parse time : 1ms
C# parse time         : 164ms
candidates check time : 52ms
console write time    : 0ms

[api-updater (non-obsolete-error-filter)] 28-01-2022 13:08:08 : Starting C:/Program Files/Unity 2021.1.16f1/2020.3.18f1/Editor/Data/Tools/ScriptUpdater/APIUpdater.NonObsoleteApiUpdaterDetector.exe
[api-updater (non-obsolete-error-filter)] 
----------------------------------
jit/startup time      : 72.7663ms
moved types parse time: 48ms
candidates parse time : 1ms
C# parse time         : 171ms
candidates check time : 54ms
console write time    : 0ms

[api-updater (non-obsolete-error-filter)] 28-01-2022 13:08:16 : Starting C:/Program Files/Unity 2021.1.16f1/2020.3.18f1/Editor/Data/Tools/ScriptUpdater/APIUpdater.NonObsoleteApiUpdaterDetector.exe
[api-updater (non-obsolete-error-filter)] 
----------------------------------
jit/startup time      : 59.8961ms
moved types parse time: 47ms
candidates parse time : 1ms
C# parse time         : 158ms
candidates check time : 45ms
console write time    : 0ms

[api-updater (non-obsolete-error-filter)] 28-01-2022 13:08:25 : Starting C:/Program Files/Unity 2021.1.16f1/2020.3.18f1/Editor/Data/Tools/ScriptUpdater/APIUpdater.NonObsoleteApiUpdaterDetector.exe
[api-updater (non-obsolete-error-filter)] 
----------------------------------
jit/startup time      : 60.6046ms
moved types parse time: 47ms
candidates parse time : 1ms
C# parse time         : 160ms
candidates check time : 43ms
console write time    : 0ms

[api-updater (non-obsolete-error-filter)] 28-01-2022 13:08:35 : Starting C:/Program Files/Unity 2021.1.16f1/2020.3.18f1/Editor/Data/Tools/ScriptUpdater/APIUpdater.NonObsoleteApiUpdaterDetector.exe
[api-updater (non-obsolete-error-filter)] 
----------------------------------
jit/startup time      : 65.7879ms
moved types parse time: 48ms
candidates parse time : 1ms
C# parse time         : 160ms
candidates check time : 41ms
console write time    : 0ms

[api-updater (non-obsolete-error-filter)] 28-01-2022 13:09:15 : Starting C:/Program Files/Unity 2021.1.16f1/2020.3.18f1/Editor/Data/Tools/ScriptUpdater/APIUpdater.NonObsoleteApiUpdaterDetector.exe
[api-updater (non-obsolete-error-filter)] 
----------------------------------
jit/startup time      : 65.8124ms
moved types parse time: 47ms
candidates parse time : 1ms
C# parse time         : 154ms
candidates check time : 42ms
console write time    : 0ms

[api-updater (non-obsolete-error-filter)] 28-01-2022 13:09:27 : Starting C:/Program Files/Unity 2021.1.16f1/2020.3.18f1/Editor/Data/Tools/ScriptUpdater/APIUpdater.NonObsoleteApiUpdaterDetector.exe
[api-updater (non-obsolete-error-filter)] 
----------------------------------
jit/startup time      : 62.8308ms
moved types parse time: 47ms
candidates parse time : 1ms
C# parse time         : 158ms
candidates check time : 42ms
console write time    : 0ms

[api-updater (non-obsolete-error-filter)] 28-01-2022 13:09:39 : Starting C:/Program Files/Unity 2021.1.16f1/2020.3.18f1/Editor/Data/Tools/ScriptUpdater/APIUpdater.NonObsoleteApiUpdaterDetector.exe
[api-updater (non-obsolete-error-filter)] 
----------------------------------
jit/startup time      : 62.8202ms
moved types parse time: 47ms
candidates parse time : 1ms
C# parse time         : 162ms
candidates check time : 42ms
console write time    : 0ms

[api-updater (non-obsolete-error-filter)] 28-01-2022 13:09:47 : Starting C:/Program Files/Unity 2021.1.16f1/2020.3.18f1/Editor/Data/Tools/ScriptUpdater/APIUpdater.NonObsoleteApiUpdaterDetector.exe
[api-updater (non-obsolete-error-filter)] 
----------------------------------
jit/startup time      : 60.8382ms
moved types parse time: 48ms
candidates parse time : 1ms
C# parse time         : 158ms
candidates check time : 39ms
console write time    : 0ms

[api-updater (non-obsolete-error-filter)] 28-01-2022 13:09:56 : Starting C:/Program Files/Unity 2021.1.16f1/2020.3.18f1/Editor/Data/Tools/ScriptUpdater/APIUpdater.NonObsoleteApiUpdaterDetector.exe
[api-updater (non-obsolete-error-filter)] 
----------------------------------
jit/startup time      : 61.1081ms
moved types parse time: 48ms
candidates parse time : 1ms
C# parse time         : 156ms
candidates check time : 34ms
console write time    : 0ms

[api-updater (non-obsolete-error-filter)] 28-01-2022 13:10:07 : Starting C:/Program Files/Unity 2021.1.16f1/2020.3.18f1/Editor/Data/Tools/ScriptUpdater/APIUpdater.NonObsoleteApiUpdaterDetector.exe
[api-updater (non-obsolete-error-filter)] 
----------------------------------
jit/startup time      : 59.719ms
moved types parse time: 48ms
candidates parse time : 0ms
C# parse time         : 157ms
candidates check time : 32ms
console write time    : 0ms

[api-updater (non-obsolete-error-filter)] 28-01-2022 13:10:16 : Starting C:/Program Files/Unity 2021.1.16f1/2020.3.18f1/Editor/Data/Tools/ScriptUpdater/APIUpdater.NonObsoleteApiUpdaterDetector.exe
[api-updater (non-obsolete-error-filter)] 
----------------------------------
jit/startup time      : 64.828ms
moved types parse time: 48ms
candidates parse time : 1ms
C# parse time         : 156ms
candidates check time : 30ms
console write time    : 0ms

[api-updater (non-obsolete-error-filter)] 28-01-2022 13:10:25 : Starting C:/Program Files/Unity 2021.1.16f1/2020.3.18f1/Editor/Data/Tools/ScriptUpdater/APIUpdater.NonObsoleteApiUpdaterDetector.exe
[api-updater (non-obsolete-error-filter)] 
----------------------------------
jit/startup time      : 58.546ms
moved types parse time: 48ms
candidates parse time : 0ms
C# parse time         : 160ms
candidates check time : 32ms
console write time    : 0ms

[api-updater (non-obsolete-error-filter)] 28-01-2022 13:10:33 : Starting C:/Program Files/Unity 2021.1.16f1/2020.3.18f1/Editor/Data/Tools/ScriptUpdater/APIUpdater.NonObsoleteApiUpdaterDetector.exe
[api-updater (non-obsolete-error-filter)] 
----------------------------------
jit/startup time      : 58.7351ms
moved types parse time: 47ms
candidates parse time : 1ms
C# parse time         : 196ms
candidates check time : 37ms
console write time    : 0ms

[api-updater (non-obsolete-error-filter)] 28-01-2022 13:10:40 : Starting C:/Program Files/Unity 2021.1.16f1/2020.3.18f1/Editor/Data/Tools/ScriptUpdater/APIUpdater.NonObsoleteApiUpdaterDetector.exe
[api-updater (non-obsolete-error-filter)] 
----------------------------------
jit/startup time      : 60.5646ms
moved types parse time: 46ms
candidates parse time : 0ms
C# parse time         : 189ms
candidates check time : 33ms
console write time    : 0ms

[api-updater (non-obsolete-error-filter)] 28-01-2022 13:28:00 : Starting C:/Program Files/Unity 2021.1.16f1/2020.3.18f1/Editor/Data/Tools/ScriptUpdater/APIUpdater.NonObsoleteApiUpdaterDetector.exe
[api-updater (non-obsolete-error-filter)] 
----------------------------------
jit/startup time      : 60.4284ms
moved types parse time: 48ms
candidates parse time : 0ms
C# parse time         : 178ms
candidates check time : 29ms
console write time    : 0ms

[api-updater (non-obsolete-error-filter)] 28-01-2022 13:28:16 : Starting C:/Program Files/Unity 2021.1.16f1/2020.3.18f1/Editor/Data/Tools/ScriptUpdater/APIUpdater.NonObsoleteApiUpdaterDetector.exe
[api-updater (non-obsolete-error-filter)] 
----------------------------------
jit/startup time      : 60.8327ms
moved types parse time: 47ms
candidates parse time : 0ms
C# parse time         : 155ms
candidates check time : 35ms
console write time    : 0ms

[api-updater (non-obsolete-error-filter)] 28-01-2022 13:28:30 : Starting C:/Program Files/Unity 2021.1.16f1/2020.3.18f1/Editor/Data/Tools/ScriptUpdater/APIUpdater.NonObsoleteApiUpdaterDetector.exe
[api-updater (non-obsolete-error-filter)] 
----------------------------------
jit/startup time      : 59.3519ms
moved types parse time: 49ms
candidates parse time : 1ms
C# parse time         : 169ms
candidates check time : 37ms
console write time    : 0ms

[api-updater (non-obsolete-error-filter)] 28-01-2022 13:28:38 : Starting C:/Program Files/Unity 2021.1.16f1/2020.3.18f1/Editor/Data/Tools/ScriptUpdater/APIUpdater.NonObsoleteApiUpdaterDetector.exe
[api-updater (non-obsolete-error-filter)] 
----------------------------------
jit/startup time      : 60.5266ms
moved types parse time: 47ms
candidates parse time : 1ms
C# parse time         : 187ms
candidates check time : 42ms
console write time    : 0ms

[api-updater (non-obsolete-error-filter)] 28-01-2022 13:28:45 : Starting C:/Program Files/Unity 2021.1.16f1/2020.3.18f1/Editor/Data/Tools/ScriptUpdater/APIUpdater.NonObsoleteApiUpdaterDetector.exe
[api-updater (non-obsolete-error-filter)] 
----------------------------------
jit/startup time      : 71.7968ms
moved types parse time: 48ms
candidates parse time : 1ms
C# parse time         : 187ms
candidates check time : 43ms
console write time    : 0ms

[api-updater (non-obsolete-error-filter)] 28-01-2022 13:30:18 : Starting C:/Program Files/Unity 2021.1.16f1/2020.3.18f1/Editor/Data/Tools/ScriptUpdater/APIUpdater.NonObsoleteApiUpdaterDetector.exe
[api-updater (non-obsolete-error-filter)] 
----------------------------------
jit/startup time      : 66.8531ms
moved types parse time: 53ms
candidates parse time : 1ms
C# parse time         : 182ms
candidates check time : 51ms
console write time    : 0ms

[api-updater (non-obsolete-error-filter)] 28-01-2022 13:30:28 : Starting C:/Program Files/Unity 2021.1.16f1/2020.3.18f1/Editor/Data/Tools/ScriptUpdater/APIUpdater.NonObsoleteApiUpdaterDetector.exe
[api-updater (non-obsolete-error-filter)] 
----------------------------------
jit/startup time      : 59.2205ms
moved types parse time: 47ms
candidates parse time : 0ms
C# parse time         : 159ms
candidates check time : 44ms
console write time    : 0ms

[api-updater (non-obsolete-error-filter)] 28-01-2022 13:30:46 : Starting C:/Program Files/Unity 2021.1.16f1/2020.3.18f1/Editor/Data/Tools/ScriptUpdater/APIUpdater.NonObsoleteApiUpdaterDetector.exe
[api-updater (non-obsolete-error-filter)] 
----------------------------------
jit/startup time      : 59.6285ms
moved types parse time: 46ms
candidates parse time : 0ms
C# parse time         : 161ms
candidates check time : 43ms
console write time    : 0ms

[api-updater (non-obsolete-error-filter)] 28-01-2022 13:30:54 : Starting C:/Program Files/Unity 2021.1.16f1/2020.3.18f1/Editor/Data/Tools/ScriptUpdater/APIUpdater.NonObsoleteApiUpdaterDetector.exe
[api-updater (non-obsolete-error-filter)] 
----------------------------------
jit/startup time      : 60.8369ms
moved types parse time: 48ms
candidates parse time : 1ms
C# parse time         : 161ms
candidates check time : 32ms
console write time    : 0ms

[api-updater (non-obsolete-error-filter)] 28-01-2022 13:31:04 : Starting C:/Program Files/Unity 2021.1.16f1/2020.3.18f1/Editor/Data/Tools/ScriptUpdater/APIUpdater.NonObsoleteApiUpdaterDetector.exe
[api-updater (non-obsolete-error-filter)] 
----------------------------------
jit/startup time      : 61.8966ms
moved types parse time: 48ms
candidates parse time : 1ms
C# parse time         : 160ms
candidates check time : 31ms
console write time    : 0ms

[api-updater (non-obsolete-error-filter)] 28-01-2022 13:31:17 : Starting C:/Program Files/Unity 2021.1.16f1/2020.3.18f1/Editor/Data/Tools/ScriptUpdater/APIUpdater.NonObsoleteApiUpdaterDetector.exe
[api-updater (non-obsolete-error-filter)] 
----------------------------------
jit/startup time      : 60.9003ms
moved types parse time: 49ms
candidates parse time : 1ms
C# parse time         : 156ms
candidates check time : 28ms
console write time    : 0ms

[api-updater (non-obsolete-error-filter)] 28-01-2022 13:31:28 : Starting C:/Program Files/Unity 2021.1.16f1/2020.3.18f1/Editor/Data/Tools/ScriptUpdater/APIUpdater.NonObsoleteApiUpdaterDetector.exe
[api-updater (non-obsolete-error-filter)] 
----------------------------------
jit/startup time      : 59.6834ms
moved types parse time: 47ms
candidates parse time : 0ms
C# parse time         : 162ms
candidates check time : 26ms
console write time    : 0ms

[api-updater (non-obsolete-error-filter)] 28-01-2022 13:31:34 : Starting C:/Program Files/Unity 2021.1.16f1/2020.3.18f1/Editor/Data/Tools/ScriptUpdater/APIUpdater.NonObsoleteApiUpdaterDetector.exe
[api-updater (non-obsolete-error-filter)] 
----------------------------------
jit/startup time      : 59.7329ms
moved types parse time: 47ms
candidates parse time : 1ms
C# parse time         : 155ms
candidates check time : 29ms
console write time    : 0ms

[api-updater (non-obsolete-error-filter)] 28-01-2022 13:31:42 : Starting C:/Program Files/Unity 2021.1.16f1/2020.3.18f1/Editor/Data/Tools/ScriptUpdater/APIUpdater.NonObsoleteApiUpdaterDetector.exe
[api-updater (non-obsolete-error-filter)] 
----------------------------------
jit/startup time      : 60.092ms
moved types parse time: 48ms
candidates parse time : 1ms
C# parse time         : 163ms
candidates check time : 28ms
console write time    : 0ms

[api-updater (non-obsolete-error-filter)] 28-01-2022 13:31:47 : Starting C:/Program Files/Unity 2021.1.16f1/2020.3.18f1/Editor/Data/Tools/ScriptUpdater/APIUpdater.NonObsoleteApiUpdaterDetector.exe
[api-updater (non-obsolete-error-filter)] 
----------------------------------
jit/startup time      : 59.9361ms
moved types parse time: 48ms
candidates parse time : 1ms
C# parse time         : 178ms
candidates check time : 31ms
console write time    : 0ms

[api-updater (non-obsolete-error-filter)] 28-01-2022 13:34:42 : Starting C:/Program Files/Unity 2021.1.16f1/2020.3.18f1/Editor/Data/Tools/ScriptUpdater/APIUpdater.NonObsoleteApiUpdaterDetector.exe
[api-updater (non-obsolete-error-filter)] 
----------------------------------
jit/startup time      : 63.6361ms
moved types parse time: 47ms
candidates parse time : 1ms
C# parse time         : 161ms
candidates check time : 26ms
console write time    : 0ms

[api-updater (non-obsolete-error-filter)] 28-01-2022 13:34:58 : Starting C:/Program Files/Unity 2021.1.16f1/2020.3.18f1/Editor/Data/Tools/ScriptUpdater/APIUpdater.NonObsoleteApiUpdaterDetector.exe
[api-updater (non-obsolete-error-filter)] 
----------------------------------
jit/startup time      : 68.8462ms
moved types parse time: 52ms
candidates parse time : 1ms
C# parse time         : 191ms
candidates check time : 43ms
console write time    : 0ms

[api-updater (non-obsolete-error-filter)] 28-01-2022 13:35:20 : Starting C:/Program Files/Unity 2021.1.16f1/2020.3.18f1/Editor/Data/Tools/ScriptUpdater/APIUpdater.NonObsoleteApiUpdaterDetector.exe
[api-updater (non-obsolete-error-filter)] 
----------------------------------
jit/startup time      : 65.8222ms
moved types parse time: 47ms
candidates parse time : 1ms
C# parse time         : 190ms
candidates check time : 50ms
console write time    : 0ms

[api-updater (non-obsolete-error-filter)] 28-01-2022 13:36:31 : Starting C:/Program Files/Unity 2021.1.16f1/2020.3.18f1/Editor/Data/Tools/ScriptUpdater/APIUpdater.NonObsoleteApiUpdaterDetector.exe
[api-updater (non-obsolete-error-filter)] 
----------------------------------
jit/startup time      : 63.1352ms
moved types parse time: 47ms
candidates parse time : 0ms
C# parse time         : 190ms
candidates check time : 35ms
console write time    : 0ms

[api-updater (non-obsolete-error-filter)] 28-01-2022 13:36:59 : Starting C:/Program Files/Unity 2021.1.16f1/2020.3.18f1/Editor/Data/Tools/ScriptUpdater/APIUpdater.NonObsoleteApiUpdaterDetector.exe
[api-updater (non-obsolete-error-filter)] 
----------------------------------
jit/startup time      : 57.922ms
moved types parse time: 46ms
candidates parse time : 0ms
C# parse time         : 191ms
candidates check time : 34ms
console write time    : 0ms

[api-updater (non-obsolete-error-filter)] 28-01-2022 13:37:33 : Starting C:/Program Files/Unity 2021.1.16f1/2020.3.18f1/Editor/Data/Tools/ScriptUpdater/APIUpdater.NonObsoleteApiUpdaterDetector.exe
[api-updater (non-obsolete-error-filter)] 
----------------------------------
jit/startup time      : 59.011ms
moved types parse time: 47ms
candidates parse time : 1ms
C# parse time         : 153ms
candidates check time : 25ms
console write time    : 0ms

